{
  "mk":{
          "commercial_banner":[
              {"id":1,"img":"/images/logo-images/klimi.png"},
              {"id":2,"img":"/images/logo-images/symphony.png"},
              {"id":3,"img":"/images/logo-images/allocate.png"},
              {"id":4,"img":"/images/logo-images/triglav.png"},
              {"id":5,"img":"/images/logo-images/inside.png"}
          ], 
          "commercial_banner_two":[
              {"id":1, "img":"images/logo-images/ffm.svg"},
              {"id":2, "img":"images/logo-images/endeva.png"},
              {"id":3, "img":"images/logo-images/inside.png"},
              {"id":4, "img":"images/logo-images/kozuvcanka.png"},
              {"id":5, "img":"images/logo-images/klimi.png"},
              {"id":6, "img":"images/logo-images/fx3x.png"},
              {"id":7, "img":"images/logo-images/symphony.png"}
          ],
          "background_img":{
              "imgOne":"/images/background-Img-1.png",
              "imgTwo":"/images/background-Img-2.jpg"
          },
          "clock":{
              "clock_1":{
                  "years":"6",
                  "title":"Години Активизам"
              },
              "clock_2":{
                  "computers":"1783",
                  "title":"Донирани Компјутери"
              },
              "clock_3":{
                  "without_computer":"38217",
                  "title":"Деца во Македонија немаат компјутер"
              }
          },
          "card":{
              "variant_one": [
                  {
                      "id":1,
                      "img":"/images/card-images/card-1.jpg",
                      "title":"Lorem ipsum dolor sit",
                      "preTitle":"Блог",
                      "text":" Aut repellendus sequi possimus quo rem dolor voluptatibus",
                      "date":"25 Декември 2022"                   
                  },
                  {
                      "id":2,
                      "img":"/images/card-images/card-2.jpg",
                      "title":"Lorem ipsum dolor sit",
                      "preTitle":"Настан",
                      "text":"Lorem ipsum dolor sit amet consectetur adipisicing elit. dasdasdasfaedascvawdawdaw dasdasdasd asdasdasda asdasdasdw Aut repellendus sequi possimus quo rem dolor voluptatibus",
                      "date":"25 Декември 2022"                   
                  },
                  {
                      "id":3,
                      "img":"/images/card-images/card-3.jpg",
                      "title":"Lorem ipsum dolor sit",
                      "preTitle":"Блог",
                      "text":"Lorem ipsum dolor sit amet consectetur adipisicing elit. Aut repellendus sequi possimus quo rem dolor voluptatibus",
                      "date":"25 Декември 2022"                   
                  },
                  {
                      "id":4,
                      "img":"/images/card-images/card-4.jpg",
                      "title":"Lorem ipsum dolor sit",
                      "preTitle":"Настан",
                      "text":"Lorem ipsum dolor sit amet consectetur adipisicing elit. Aut repellendus sequi possimus quo rem dolor voluptatibus",
                      "date":"25 Декември 2022"                   
                  },
                  {
                      "id":5,
                      "img":"/images/card-images/card-5.jpg",
                      "title":"Lorem ipsum dolor sit",
                      "preTitle":"Настан",
                      "text":"Lorem ipsum dolor sit amet consectetur adipisicing elit. Aut repellendus sequi possimus quo rem dolor voluptatibus",
                      "date":"25 Декември 2022"                   
                  },
                  {
                      "id":6,
                      "img":"/images/card-images/card-5.jpg",
                      "title":"Lorem ipsum dolor sit",
                      "preTitle":"Настан",
                      "text":"Lorem ipsum dolor sit amet consectetur adipisicing elit. Aut repellendus sequi possimus quo rem dolor voluptatibus",
                      "date":"25 Декември 2022"                   
                  },
                  {
                      "id":7,
                      "img":"/images/card-images/card-1.jpg",
                      "title":"Lorem ipsum dolor sit",
                      "preTitle":"Блог",
                      "text":"Lorem ipsum dolor sit amet consectetur adipisicing elit. Aut repellendus sequi possimus quo rem dolor voluptatibus",
                      "date":"25 Декември 2022"                   
                  },
                  {
                      "id":8,
                      "img":"/images/card-images/card-2.jpg",
                      "title":"Lorem ipsum dolor sit",
                      "preTitle":"Настан",
                      "text":"Lorem ipsum dolor sit amet consectetur adipisicing elit. Aut repellendus sequi possimus quo rem dolor voluptatibus",
                      "date":"25 Декември 2022"                   
                  },
                  {
                      "id":9,
                      "img":"/images/card-images/card-3.jpg",
                      "title":"Lorem ipsum dolor sit",
                      "preTitle":"Блог",
                      "text":"Lorem ipsum dolor sit amet consectetur adipisicing elit. Aut repellendus sequi possimus quo rem dolor voluptatibus",
                      "date":"25 Декември 2022"                   
                  },
                  {
                      "id":10,
                      "img":"/images/card-images/card-4.jpg",
                      "title":"Lorem ipsum dolor sit",
                      "preTitle":"Настан",
                      "text":"Lorem ipsum dolor sit amet consectetur adipisicing elit. Aut repellendus sequi possimus quo rem dolor voluptatibus",
                      "date":"25 Декември 2022"                   
                  },
                  {
                      "id":11,
                      "img":"/images/card-images/card-5.jpg",
                      "title":"Lorem ipsum dolor sit",
                      "preTitle":"Настан",
                      "text":"Lorem ipsum dolor sit amet consectetur adipisicing elit. Aut repellendus sequi possimus quo rem dolor voluptatibus",
                      "date":"25 Декември 2022"                   
                  },
                  {
                      "id":12,
                      "img":"/images/card-images/card-5.jpg",
                      "title":"Lorem ipsum dolor sit",
                      "preTitle":"Настан",
                      "text":"Lorem ipsum dolor sit amet consectetur adipisicing elit. Aut repellendus sequi possimus quo rem dolor voluptatibus",
                      "date":"25 Декември 2022"                   
                  }
                  
              ],
              "variant_two":[
                  {
                      "id":1,
                      "preTitle":"eden na eden",
                      "title":"Интервјуа",
                      "img":"/images/card-images/sertifikat-1.JPG",
                      "text":"Lorem ipsum dolor sit amet consectetur adipisicing elit. Ratione, repellat voluptatum at aliquid neque aperiam?"
                  },
                  {
                      "id":2,
                      "preTitle":"сајт на годината за 2020 година",
                      "title":"Награди",
                      "img":"/images/card-images/sertifikat-2.JPG",
                      "text":"Lorem ipsum dolor sit amet consectetur adipisicing elit. Ratione, repellat voluptatum at aliquid neque aperiam?"
                  },
                  {
                      "id":3,
                      "preTitle":"наслов",
                      "title":"Сертификати",
                      "img":"/images/card-images/sertifikat-3.JPG",
                      "text":"Lorem ipsum dolor sit amet consectetur adipisicing elit. Ratione, repellat voluptatum at aliquid neque aperiam?"
                  },
                  {
                      "id":4,
                      "preTitle":"eden na eden",
                      "title":"Интервјуа",
                      "img":"/images/card-images/sertifikat-4.JPG",
                      "text":"Lorem ipsum dolor sit amet consectetur adipisicing elit. Ratione, repellat voluptatum at aliquid neque aperiam?"
                  },
                  {
                      "id":5,
                      "preTitle":"сајт на годината за 2020 година",
                      "title":"Награди",
                      "img":"/images/card-images/sertifikat-5.JPG",
                      "text":"Lorem ipsum dolor sit amet consectetur adipisicing elit. Ratione, repellat voluptatum at aliquid neque aperiam?"
                  },
                  {
                      "id":6,
                      "preTitle":"наслов",
                      "title":"Сертификати",
                      "img":"/images/card-images/sertifikat-6.JPG",
                      "text":"Lorem ipsum dolor sit amet consectetur adipisicing elit. Ratione, repellat voluptatum at aliquid neque aperiam?"
                  }
                  
              ]
          },
          "testimonials":[
              {
                  "id":1,
                  "name":"Ангела Ангеловска",
                  "age":16,
                  "text":"MK Lorem ipsum dolor sit amet consectetur adipisicing elit. Adipisci excepturi, doloremque illum ratione totam eos! Amet quae ut minima accusantium nemo soluta nisi. Rem assumenda quia quis dolorum deleniti rerum?",
                  "img":"/images/testimonials/profile-1.png"

              },
              {
                  "id":2,
                  "name":"Б Ангеловска",
                  "age":17,
                  "text":"MK Ipsum dolor sit amet consectetur adipisicing elit. Adipisci excepturi, doloremque illum ratione totam eos! Amet quae ut minima accusantium nemo soluta nisi. Rem assumenda quia quis dolorum deleniti rerum?",
                  "img":"/images/testimonials/profile-2.png"

              },
              {
                  "id":3,
                  "name":"В Ангеловска",
                  "age":18,
                  "text":"MK Dolor sit amet consectetur adipisicing elit. Adipisci excepturi, doloremque illum ratione totam eos! Amet quae ut minima accusantium nemo soluta nisi. Rem assumenda quia quis dolorum deleniti rerum?",
                  "img":"/images/testimonials/profile-3.png"

              },
              {
                  "id":4,
                  "name":"Г Ангеловска",
                  "age":19,
                  "text":"MK Sit amet consectetur adipisicing elit. Adipisci excepturi, doloremque illum ratione totam eos! Amet quae ut minima accusantium nemo soluta nisi. Rem assumenda quia quis dolorum deleniti rerum?",
                  "img":"/images/testimonials/profile-4.png"

              },
              {
                  "id":5,
                  "name":"Д Ангеловска",
                  "age":20,
                  "text":"MK Amet consectetur adipisicing elit. Adipisci excepturi, doloremque illum ratione totam eos! Amet quae ut minima accusantium nemo soluta nisi. Rem assumenda quia quis dolorum deleniti rerum?",
                  "img":"/images/testimonials/profile-5.png"

              }
          ],
          "progress":{"computers":1200,"tablets":56},
          "partnership":{
              "macedonia":[
                  {"company":"Еко Логистик Сервис"},
                  {"company":"Клими Мк"},
                  {"company":"Триглав Осигуруванје"},
                  {"company":"Publikum Invest"},
                  {"company":"Кам Маркет"},
                  {"company":"Силк Роад банка"},
                  {"company":"Кожувчанка"},
                  {"company":"Амбасада на Холандија"},
                  {"company":"Аква Нет"},
                  {"company":"Тирена Скави"},
                  {"company":"Штедилница Можности"},
                  {"company":"Конект"},
                  {"company":"Каталист Балканс"},
                  {"company":"ОКО"},
                  {"company":"Филолошки Факултет"}]
          },
          "marketing_carousel":[
              {"id":1,"img":"/images/card-images/education-gallery-1.png"},
              {"id":2,"img":"/images/card-images/education-gallery-1.png"},
              {"id":3,"img":"/images/card-images/education-gallery-1.png"},
              {"id":4,"img":"/images/card-images/education-gallery-1.png"},
              {"id":5,"img":"/images/card-images/education-gallery-1.png"},
              {"id":6,"img":"/images/card-images/education-gallery-1.png"}
          ]
      },
"en":{
          "commercial_banner":[
              {"id":1,"img":"/images/logo-images/klimi.png"},
              {"id":2,"img":"/images/logo-images/symphony.png"},
              {"id":3,"img":"/images/logo-images/allocate.png"},
              {"id":4,"img":"/images/logo-images/triglav.png"},
              {"id":5,"img":"/images/logo-images/inside.png"}
          ], 
          "commercial_banner_two":[
              {"id":1, "img":"images/logo-images/ffm.svg"},
              {"id":2, "img":"images/logo-images/endeva.png"},
              {"id":3, "img":"images/logo-images/inside.png"},
              {"id":4, "img":"images/logo-images/kozuvcanka.png"},
              {"id":5, "img":"images/logo-images/klimi.png"},
              {"id":6, "img":"images/logo-images/fx3x.png"},
              {"id":7, "img":"images/logo-images/symphony.png"}
          ],
          "background_img":{
              "imgOne":"/images/background-Img-1.png",
              "imgTwo":"/images/background-Img-2.jpg"
          },
          "clock":{
                "clock_1":{
                    "years":"6",
                    "title":"Years of Activism"
                },
                "clock_2":{
                    "computers":"1783",
                    "title":"Donated Computers"
                },
                "clock_3":{
                    "without_computer":"38217",
                    "title":"Children in Macedonia do not have a computer"
                }
            },
          "card":{
              "variant_one": [
                  {
                      "id":1,
                      "img":"/images/card-images/card-1.jpg",
                      "title":"Lorem ipsum dolor sit",
                      "preTitle":"Blog",
                      "text":"Lorem ipsum dolor sit amet consectetur adipisicing elit. Aut repellendus sequi possimus quo rem dolor voluptatibus",
                      "date":"25 Декември 2022"                   
                  },
                  {
                      "id":2,
                      "img":"/images/card-images/card-2.jpg",
                      "title":"Lorem ipsum dolor sit",
                      "preTitle":"Event",
                      "text":"Lorem ipsum dolor sit amet consectetur adipisicing elit. Aut repellendus sequi possimus quo rem dolor voluptatibus",
                      "date":"25 Декември 2022"                   
                  },
                  {
                      "id":3,
                      "img":"/images/card-images/card-3.jpg",
                      "title":"Lorem ipsum dolor sit",
                      "preTitle":"Blog",
                      "text":"Lorem ipsum dolor sit amet consectetur adipisicing elit. Aut repellendus sequi possimus quo rem dolor voluptatibus",
                      "date":"25 Декември 2022"                   
                  },
                  {
                      "id":4,
                      "img":"/images/card-images/card-4.jpg",
                      "title":"Lorem ipsum dolor sit",
                      "preTitle":"Event",
                      "text":"Lorem ipsum dolor sit amet consectetur adipisicing elit. Aut repellendus sequi possimus quo rem dolor voluptatibus",
                      "date":"25 Декември 2022"                   
                  },
                  {
                      "id":5,
                      "img":"/images/card-images/card-5.jpg",
                      "title":"Lorem ipsum dolor sit",
                      "preTitle":"Event",
                      "text":"Lorem ipsum dolor sit amet consectetur adipisicing elit. Aut repellendus sequi possimus quo rem dolor voluptatibus",
                      "date":"25 Декември 2022"                   
                  },
                  {
                      "id":6,
                      "img":"/images/card-images/card-5.jpg",
                      "title":"Lorem ipsum dolor sit",
                      "preTitle":"Event",
                      "text":"Lorem ipsum dolor sit amet consectetur adipisicing elit. Aut repellendus sequi possimus quo rem dolor voluptatibus",
                      "date":"25 Декември 2022"                   
                  },
                  {
                      "id":7,
                      "img":"/images/card-images/card-1.jpg",
                      "title":"Lorem ipsum dolor sit",
                      "preTitle":"Blog",
                      "text":"Lorem ipsum dolor sit amet consectetur adipisicing elit. Aut repellendus sequi possimus quo rem dolor voluptatibus",
                      "date":"25 Декември 2022"                   
                  },
                  {
                      "id":8,
                      "img":"/images/card-images/card-2.jpg",
                      "title":"Lorem ipsum dolor sit",
                      "preTitle":"Event",
                      "text":"Lorem ipsum dolor sit amet consectetur adipisicing elit. Aut repellendus sequi possimus quo rem dolor voluptatibus",
                      "date":"25 Декември 2022"                   
                  },
                  {
                      "id":9,
                      "img":"/images/card-images/card-3.jpg",
                      "title":"Lorem ipsum dolor sit",
                      "preTitle":"Blog",
                      "text":"Lorem ipsum dolor sit amet consectetur adipisicing elit. Aut repellendus sequi possimus quo rem dolor voluptatibus",
                      "date":"25 Декември 2022"                   
                  },
                  {
                      "id":10,
                      "img":"/images/card-images/card-4.jpg",
                      "title":"Lorem ipsum dolor sit",
                      "preTitle":"Event",
                      "text":"Lorem ipsum dolor sit amet consectetur adipisicing elit. Aut repellendus sequi possimus quo rem dolor voluptatibus",
                      "date":"25 Декември 2022"                   
                  },
                  {
                      "id":11,
                      "img":"/images/card-images/card-5.jpg",
                      "title":"Lorem ipsum dolor sit",
                      "preTitle":"Event",
                      "text":"Lorem ipsum dolor sit amet consectetur adipisicing elit. Aut repellendus sequi possimus quo rem dolor voluptatibus",
                      "date":"25 Декември 2022"                   
                  },
                  {
                      "id":12,
                      "img":"/images/card-images/card-5.jpg",
                      "title":"Lorem ipsum dolor sit",
                      "preTitle":"Event",
                      "text":"Lorem ipsum dolor sit amet consectetur adipisicing elit. Aut repellendus sequi possimus quo rem dolor voluptatibus",
                      "date":"25 Декември 2022"                   
                  }
                  
              ],
              "variant_two":[
                  {
                      "id":1,
                      "preTitle":"eden na eden",
                      "title":"Интервјуа",
                      "img":"/images/card-images/sertifikat-1.JPG",
                      "text":"Lorem ipsum dolor sit amet consectetur adipisicing elit. Ratione, repellat voluptatum at aliquid neque aperiam?"
                  },
                  {
                      "id":2,
                      "preTitle":"сајт на годината за 2020 година",
                      "title":"Награди",
                      "img":"/images/card-images/sertifikat-2.JPG",
                      "text":"Lorem ipsum dolor sit amet consectetur adipisicing elit. Ratione, repellat voluptatum at aliquid neque aperiam?"
                  },
                  {
                      "id":3,
                      "preTitle":"наслов",
                      "title":"Сертификати",
                      "img":"/images/card-images/sertifikat-3.JPG",
                      "text":"Lorem ipsum dolor sit amet consectetur adipisicing elit. Ratione, repellat voluptatum at aliquid neque aperiam?"
                  },
                  {
                      "id":4,
                      "preTitle":"eden na eden",
                      "title":"Интервјуа",
                      "img":"/images/card-images/sertifikat-4.JPG",
                      "text":"Lorem ipsum dolor sit amet consectetur adipisicing elit. Ratione, repellat voluptatum at aliquid neque aperiam?"
                  },
                  {
                      "id":5,
                      "preTitle":"сајт на годината за 2020 година",
                      "title":"Награди",
                      "img":"/images/card-images/sertifikat-5.JPG",
                      "text":"Lorem ipsum dolor sit amet consectetur adipisicing elit. Ratione, repellat voluptatum at aliquid neque aperiam?"
                  },
                  {
                      "id":6,
                      "preTitle":"наслов",
                      "title":"Сертификати",
                      "img":"/images/card-images/sertifikat-6.JPG",
                      "text":"Lorem ipsum dolor sit amet consectetur adipisicing elit. Ratione, repellat voluptatum at aliquid neque aperiam?"
                  }
                  
              ]
          },
          "testimonials":[
              {
                  "id":1,
                  "name":"Ангела Ангеловска",
                  "age":16,
                  "text":"Lorem ipsum dolor sit amet consectetur adipisicing elit. Adipisci excepturi, doloremque illum ratione totam eos! Amet quae ut minima accusantium nemo soluta nisi. Rem assumenda quia quis dolorum deleniti rerum?",
                  "img":"/images/testimonials/profile-1.png"
                  
              },
              {
                  "id":2,
                  "name":"Б Ангеловска",
                  "age":17,
                  "text":"Ipsum dolor sit amet consectetur adipisicing elit. Adipisci excepturi, doloremque illum ratione totam eos! Amet quae ut minima accusantium nemo soluta nisi. Rem assumenda quia quis dolorum deleniti rerum?",
                  "img":"/images/testimonials/profile-2.png"

              },
              {
                  "id":3,
                  "name":"В Ангеловска",
                  "age":18,
                  "text":"Dolor sit amet consectetur adipisicing elit. Adipisci excepturi, doloremque illum ratione totam eos! Amet quae ut minima accusantium nemo soluta nisi. Rem assumenda quia quis dolorum deleniti rerum?",
                  "img":"/images/testimonials/profile-3.png"

              },
              {
                  "id":4,
                  "name":"Г Ангеловска",
                  "age":19,
                  "text":"Sit amet consectetur adipisicing elit. Adipisci excepturi, doloremque illum ratione totam eos! Amet quae ut minima accusantium nemo soluta nisi. Rem assumenda quia quis dolorum deleniti rerum?",
                  "img":"/images/testimonials/profile-4.png"

              },
              {
                  "id":5,
                  "name":"Д Ангеловска",
                  "age":20,
                  "text":"Amet consectetur adipisicing elit. Adipisci excepturi, doloremque illum ratione totam eos! Amet quae ut minima accusantium nemo soluta nisi. Rem assumenda quia quis dolorum deleniti rerum?",
                  "img":"/images/testimonials/profile-5.png"

              }
          ],
          "progress":{"computers":1200,"tablets":56},
          "partnership":{
              "macedonia":[
                  {"company":"Еко Логистик Сервис"},
                  {"company":"Клими Мк"},
                  {"company":"Триглав Осигуруванје"},
                  {"company":"Publikum Invest"},
                  {"company":"Кам Маркет"},
                  {"company":"Силк Роад банка"},
                  {"company":"Кожувчанка"},
                  {"company":"Амбасада на Холандија"},
                  {"company":"Аква Нет"},
                  {"company":"Тирена Скави"},
                  {"company":"Штедилница Можности"},
                  {"company":"Конект"},
                  {"company":"Каталист Балканс"},
                  {"company":"ОКО"},
                  {"company":"Филолошки Факултет"}]
          },
          "marketing_carousel":[
              {"id":1,"img":"/images/card-images/education-gallery-1.png"},
              {"id":2,"img":"/images/card-images/education-gallery-1.png"},
              {"id":3,"img":"/images/card-images/education-gallery-1.png"},
              {"id":4,"img":"/images/card-images/education-gallery-1.png"},
              {"id":5,"img":"/images/card-images/education-gallery-1.png"},
              {"id":6,"img":"/images/card-images/education-gallery-1.png"}
          ]
      },
"sq":{
    "commercial_banner":[
        {"id":1,"img":"/images/logo-images/klimi.png"},
        {"id":2,"img":"/images/logo-images/symphony.png"},
        {"id":3,"img":"/images/logo-images/allocate.png"},
        {"id":4,"img":"/images/logo-images/triglav.png"},
        {"id":5,"img":"/images/logo-images/inside.png"}
    ], 
    "commercial_banner_two":[
        {"id":1, "img":"images/logo-images/ffm.svg"},
        {"id":2, "img":"images/logo-images/endeva.png"},
        {"id":3, "img":"images/logo-images/inside.png"},
        {"id":4, "img":"images/logo-images/kozuvcanka.png"},
        {"id":5, "img":"images/logo-images/klimi.png"},
        {"id":6, "img":"images/logo-images/fx3x.png"},
        {"id":7, "img":"images/logo-images/symphony.png"}
    ],
    "background_img":{
        "imgOne":"/images/background-Img-1.png",
        "imgTwo":"/images/background-Img-2.jpg"
    },
    "clock":{
            "clock_1":{
                "years":"6",
                "title":"Vitet e aktivizmit"
            },
            "clock_2":{
                "computers":"1783",
                "title":"Kompjuterë të dhuruar"
            },
            "clock_3":{
                "without_computer":"38217",
                "title":"Fëmijët në Maqedoni nuk kanë kompjuter"
            }
        },
    "card":{
        "variant_one": [
            {
                "id":1,
                "img":"/images/card-images/card-1.jpg",
                "title":"Lorem ipsum dolor sit",
                "preTitle":"Blog",
                "text":"Lorem ipsum dolor sit amet consectetur adipisicing elit. Aut repellendus sequi possimus quo rem dolor voluptatibus",
                "date":"25 Декември 2022"                   
            },
            {
                "id":2,
                "img":"/images/card-images/card-2.jpg",
                "title":"Lorem ipsum dolor sit",
                "preTitle":"Nastan",
                "text":"Lorem ipsum dolor sit amet consectetur adipisicing elit. Aut repellendus sequi possimus quo rem dolor voluptatibus",
                "date":"25 Декември 2022"                   
            },
            {
                "id":3,
                "img":"/images/card-images/card-3.jpg",
                "title":"Lorem ipsum dolor sit",
                "preTitle":"Blog",
                "text":"Lorem ipsum dolor sit amet consectetur adipisicing elit. Aut repellendus sequi possimus quo rem dolor voluptatibus",
                "date":"25 Декември 2022"                   
            },
            {
                "id":4,
                "img":"/images/card-images/card-4.jpg",
                "title":"Lorem ipsum dolor sit",
                "preTitle":"Nastan",
                "text":"Lorem ipsum dolor sit amet consectetur adipisicing elit. Aut repellendus sequi possimus quo rem dolor voluptatibus",
                "date":"25 Декември 2022"                   
            },
            {
                "id":5,
                "img":"/images/card-images/card-5.jpg",
                "title":"Lorem ipsum dolor sit",
                "preTitle":"Nastan",
                "text":"Lorem ipsum dolor sit amet consectetur adipisicing elit. Aut repellendus sequi possimus quo rem dolor voluptatibus",
                "date":"25 Декември 2022"                   
            },
            {
                "id":6,
                "img":"/images/card-images/card-5.jpg",
                "title":"Lorem ipsum dolor sit",
                "preTitle":"Nastan",
                "text":"Lorem ipsum dolor sit amet consectetur adipisicing elit. Aut repellendus sequi possimus quo rem dolor voluptatibus",
                "date":"25 Декември 2022"                   
            },
            {
                "id":7,
                "img":"/images/card-images/card-1.jpg",
                "title":"Lorem ipsum dolor sit",
                "preTitle":"Blog",
                "text":"Lorem ipsum dolor sit amet consectetur adipisicing elit. Aut repellendus sequi possimus quo rem dolor voluptatibus",
                "date":"25 Декември 2022"                   
            },
            {
                "id":8,
                "img":"/images/card-images/card-2.jpg",
                "title":"Lorem ipsum dolor sit",
                "preTitle":"Nastan",
                "text":"Lorem ipsum dolor sit amet consectetur adipisicing elit. Aut repellendus sequi possimus quo rem dolor voluptatibus",
                "date":"25 Декември 2022"                   
            },
            {
                "id":9,
                "img":"/images/card-images/card-3.jpg",
                "title":"Lorem ipsum dolor sit",
                "preTitle":"Blog",
                "text":"Lorem ipsum dolor sit amet consectetur adipisicing elit. Aut repellendus sequi possimus quo rem dolor voluptatibus",
                "date":"25 Декември 2022"                   
            },
            {
                "id":10,
                "img":"/images/card-images/card-4.jpg",
                "title":"Lorem ipsum dolor sit",
                "preTitle":"Nastan",
                "text":"Lorem ipsum dolor sit amet consectetur adipisicing elit. Aut repellendus sequi possimus quo rem dolor voluptatibus",
                "date":"25 Декември 2022"                   
            },
            {
                "id":11,
                "img":"/images/card-images/card-5.jpg",
                "title":"Lorem ipsum dolor sit",
                "preTitle":"Nastan",
                "text":"Lorem ipsum dolor sit amet consectetur adipisicing elit. Aut repellendus sequi possimus quo rem dolor voluptatibus",
                "date":"25 Декември 2022"                   
            },
            {
                "id":12,
                "img":"/images/card-images/card-5.jpg",
                "title":"Lorem ipsum dolor sit",
                "preTitle":"Nastan",
                "text":"Lorem ipsum dolor sit amet consectetur adipisicing elit. Aut repellendus sequi possimus quo rem dolor voluptatibus",
                "date":"25 Декември 2022"                   
            }
            
        ],
        "variant_two":[
            {
                "id":1,
                "preTitle":"eden na eden",
                "title":"Интервјуа",
                "img":"/images/card-images/sertifikat-1.JPG",
                "text":"Lorem ipsum dolor sit amet consectetur adipisicing elit. Ratione, repellat voluptatum at aliquid neque aperiam?"
            },
            {
                "id":2,
                "preTitle":"сајт на годината за 2020 година",
                "title":"Награди",
                "img":"/images/card-images/sertifikat-2.JPG",
                "text":"Lorem ipsum dolor sit amet consectetur adipisicing elit. Ratione, repellat voluptatum at aliquid neque aperiam?"
            },
            {
                "id":3,
                "preTitle":"наслов",
                "title":"Сертификати",
                "img":"/images/card-images/sertifikat-3.JPG",
                "text":"Lorem ipsum dolor sit amet consectetur adipisicing elit. Ratione, repellat voluptatum at aliquid neque aperiam?"
            },
            {
                "id":4,
                "preTitle":"eden na eden",
                "title":"Интервјуа",
                "img":"/images/card-images/sertifikat-4.JPG",
                "text":"Lorem ipsum dolor sit amet consectetur adipisicing elit. Ratione, repellat voluptatum at aliquid neque aperiam?"
            },
            {
                "id":5,
                "preTitle":"сајт на годината за 2020 година",
                "title":"Награди",
                "img":"/images/card-images/sertifikat-5.JPG",
                "text":"Lorem ipsum dolor sit amet consectetur adipisicing elit. Ratione, repellat voluptatum at aliquid neque aperiam?"
            },
            {
                "id":6,
                "preTitle":"наслов",
                "title":"Сертификати",
                "img":"/images/card-images/sertifikat-6.JPG",
                "text":"Lorem ipsum dolor sit amet consectetur adipisicing elit. Ratione, repellat voluptatum at aliquid neque aperiam?"
            }
            
        ]
    },
    "testimonials":[
        {
            "id":1,
            "name":"Ангела Ангеловска",
            "age":16,
            "text":"AL Lorem ipsum dolor sit amet consectetur adipisicing elit. Adipisci excepturi, doloremque illum ratione totam eos! Amet quae ut minima accusantium nemo soluta nisi. Rem assumenda quia quis dolorum deleniti rerum?",
            "img":"/images/testimonials/profile-1.png"
            
        },
        {
            "id":2,
            "name":"Б Ангеловска",
            "age":17,
            "text":"AL Ipsum dolor sit amet consectetur adipisicing elit. Adipisci excepturi, doloremque illum ratione totam eos! Amet quae ut minima accusantium nemo soluta nisi. Rem assumenda quia quis dolorum deleniti rerum?",
            "img":"/images/testimonials/profile-2.png"

        },
        {
            "id":3,
            "name":"В Ангеловска",
            "age":18,
            "text":"AL Dolor sit amet consectetur adipisicing elit. Adipisci excepturi, doloremque illum ratione totam eos! Amet quae ut minima accusantium nemo soluta nisi. Rem assumenda quia quis dolorum deleniti rerum?",
            "img":"/images/testimonials/profile-3.png"

        },
        {
            "id":4,
            "name":"Г Ангеловска",
            "age":19,
            "text":"AL Sit amet consectetur adipisicing elit. Adipisci excepturi, doloremque illum ratione totam eos! Amet quae ut minima accusantium nemo soluta nisi. Rem assumenda quia quis dolorum deleniti rerum?",
            "img":"/images/testimonials/profile-4.png"

        },
        {
            "id":5,
            "name":"Д Ангеловска",
            "age":20,
            "text":"AL Amet consectetur adipisicing elit. Adipisci excepturi, doloremque illum ratione totam eos! Amet quae ut minima accusantium nemo soluta nisi. Rem assumenda quia quis dolorum deleniti rerum?",
            "img":"/images/testimonials/profile-5.png"

        }
    ],
    "progress":{"computers":1200,"tablets":56},
    "partnership":{
        "macedonia":[
            {"company":"Еко Логистик Сервис"},
            {"company":"Клими Мк"},
            {"company":"Триглав Осигуруванје"},
            {"company":"Publikum Invest"},
            {"company":"Кам Маркет"},
            {"company":"Силк Роад банка"},
            {"company":"Кожувчанка"},
            {"company":"Амбасада на Холандија"},
            {"company":"Аква Нет"},
            {"company":"Тирена Скави"},
            {"company":"Штедилница Можности"},
            {"company":"Конект"},
            {"company":"Каталист Балканс"},
            {"company":"ОКО"},
            {"company":"Филолошки Факултет"}]
    },
    "marketing_carousel":[
        {"id":1,"img":"/images/card-images/education-gallery-1.png"},
        {"id":2,"img":"/images/card-images/education-gallery-1.png"},
        {"id":3,"img":"/images/card-images/education-gallery-1.png"},
        {"id":4,"img":"/images/card-images/education-gallery-1.png"},
        {"id":5,"img":"/images/card-images/education-gallery-1.png"},
        {"id":6,"img":"/images/card-images/education-gallery-1.png"}
    ]
    }   
}